## Interface: 70300
## Title: Can I Mog It?
## Author: TorelTwiddler, Ami Yuy
## Version: @project-version@
## Notes: Adds tooltips to items showing if you have learned a transmog appearance.
## Notes-deDE: @localization(locale="deDE", key="Adds tooltips to items showing if you have learned a transmog appearance.")@
## Notes-esES: @localization(locale="esES", key="Adds tooltips to items showing if you have learned a transmog appearance.")@
## Notes-esMX: @localization(locale="esMX", key="Adds tooltips to items showing if you have learned a transmog appearance.")@
## Notes-frFR: @localization(locale="frFR", key="Adds tooltips to items showing if you have learned a transmog appearance.")@
## Notes-itIT: @localization(locale="itIT", key="Adds tooltips to items showing if you have learned a transmog appearance.")@
## Notes-koKR: @localization(locale="koKR", key="Adds tooltips to items showing if you have learned a transmog appearance.")@
## Notes-ptBR: @localization(locale="ptBR", key="Adds tooltips to items showing if you have learned a transmog appearance.")@
## Notes-ruRU: @localization(locale="ruRU", key="Adds tooltips to items showing if you have learned a transmog appearance.")@
## Notes-zhCN: @localization(locale="zhCN", key="Adds tooltips to items showing if you have learned a transmog appearance.")@
## Notes-zhTW: @localization(locale="zhTW", key="Adds tooltips to items showing if you have learned a transmog appearance.")@
## X-Category: Transmogrify
## X-Website: http://mods.curse.com/addons/wow/can-i-mog-it
## SavedVariables: CanIMogItOptions, CanIMogItDatabase
## OptionalDeps: AdiBags, ArkInventory, ElvUI, LiteBag
embeds.xml
core.lua
Locale\_locales.xml
constants.lua
options.lua
cache.lua
requirements.lua
code.lua
tooltips.lua
database.lua
tooltipScanner.lua
Overlay\_overlays.xml
Plugins\_plugins.xml
Tests\_tests.xml
